{
  "title": "Branching Question",
  "description": "description",
  "majorVersion": 1,
  "minorVersion": 0,
  "patchVersion": 2,
  "runnable": 0,
  "metadata": 0,
  "author": "Joubel AS",
  "license": "MIT",
  "machineName": "H5P.BranchingQuestion",
  "preloadedJs": [
    {
      "path": "branchingQuestion.js"
    }
  ],
  "preloadedCss": [
    {
      "path": "branchingQuestion.css"
    }
  ],
  "preloadedDependencies": [
    {
     "machineName": "FontAwesome",
     "majorVersion": 4,
     "minorVersion": 5
   }
  ],
  "editorDependencies": [
    {
      "machineName": "H5PEditor.ShowWhen",
      "majorVersion": 1,
      "minorVersion": 0
    },
    {
      "machineName": "H5PEditor.BranchingQuestion",
      "majorVersion": 1,
      "minorVersion": 0
    }
  ]
}
