<?xml version="1.0" encoding="utf-8"?>
<!-- Generator: Adobe Illustrator 24.0.2, SVG Export Plug-In . SVG Version: 6.00 Build 0)  -->
<svg version="1.1" id="Layer_1" xmlns="http://www.w3.org/2000/svg" xmlns:xlink="http://www.w3.org/1999/xlink" x="0px" y="0px"
	 viewBox="0 0 1801 506" style="enable-background:new 0 0 1801 506;" xml:space="preserve">
<style type="text/css">
	.st0{fill:#FFFFFF;}
</style>
<g>
	<g>
		<path class="st0" d="M672.9,396.7c-3.6,0.6-7.3,1-11.1,1c-12.5,0-24.2-3.6-34.5-10.3c-13-8.5-22.7-21.7-26.6-37.6
			c-1.2-4.9-1.8-9.9-1.8-15c0-3.5,2.8-6.3,6.3-6.3s6.3,2.8,6.3,6.3c0,4.1,0.5,8.1,1.4,12c4,16.3,15.6,29,30.4,34.8
			c4.4-15.8,6.8-32.4,6.8-49.7c0-105.4-88.7-190.1-195.6-183.5c-92,5.7-166.7,81-171.8,173c-4.4,78.9,41,147.6,107.5,177.9
			c3.5,1.6,7.1-2,5.5-5.5c-5.8-12.4-8-26.7-5.3-41.7c5-27.4,26.9-49.6,54.4-54.6c43.5-8,81.5,25.3,81.5,67.3c0,11.6-2.9,22.5-8,32
			c-1,1.9,1.4,3.9,3,2.4c30.3-25.6,51.5-61.7,58-102.7c-8.3-8.4-14.8-18.6-18.8-30c-16.7,9.2-35.5,14-54.7,14
			c-62.7,0-113.8-51-113.8-113.8c0-35.3,16-68.1,43.9-89.8c2.7-2.1,6.7-1.6,8.8,1.1c2,2.6,1.7,6.4-0.8,8.6
			c-12.4,11.1-24.5,22.7-30.9,38.1c-30,73.1,23.3,143.2,92.7,143.2c17.9,0,35.5-4.7,50.9-13.7c0.2-0.1,0.4-0.2,0.6-0.3
			c-0.8-4.4-1.2-9-1.2-13.7c0-7.5-6.1-13.5-13.5-13.5c-3.5,0-6.3-2.8-6.3-6.3c0-3.5,2.8-6.3,6.3-6.3c14.4,0,26.1,11.7,26.1,26.1
			c0,32.8,23.6,60.2,54.7,66.1c4.1,0.8,8.4,1.2,12.6,1.2C649.7,407.8,662.3,403.7,672.9,396.7z M570.4,289.6
			c-8.2,0-14.8-6.6-14.8-14.8c0-8.2,6.6-14.8,14.8-14.8c8.2,0,14.8,6.6,14.8,14.8C585.1,283,578.5,289.6,570.4,289.6z"/>
		<path class="st0" d="M579.8,440.8c-9.2,21.7-22.3,41.2-39.1,57.9c0,0,0,0,0,0c-0.5,0.5,0.1,1.4,0.8,1.1
			c36.8-16.5,67.2-44.7,86.4-79.9c-13.8-1.4-26.5-6.3-37.3-13.9C588.1,417.9,584.6,429.6,579.8,440.8z"/>
	</g>
	<g>
		<path class="st0" d="M133.3,94.2H11c-6.1,0-11-4.9-11-11l0-2.5C0,39.4,33.4,6,74.7,6h279c8.2,0,14.9,6.7,14.9,14.9v58.3
			c0,8.2-6.7,14.9-14.9,14.9H235.2c-3.3,0-6,2.7-6,6v384.6c0,8.2-6.7,14.9-14.9,14.9h-60c-8.2,0-14.9-6.7-14.9-14.9V100.2
			C139.3,96.9,136.6,94.2,133.3,94.2z"/>
	</g>
	<path class="st0" d="M665.7,148.4h69.9c6.2,0,11.7,3.8,13.9,9.5l84.2,216.6c0.6,1.5,2.1,2.6,3.8,2.6l0,0c1.7,0,3.1-1,3.7-2.6
		l70-177.3c11.6-29.5,40.1-48.8,71.8-48.8h26.2c10.7,0,17.9,10.9,13.7,20.8L885.4,490.7c-2.3,5.5-7.8,9.1-13.7,9.1h-69.8
		c-6,0-11.4-3.6-13.7-9.1L651.9,169.2C647.8,159.3,655,148.4,665.7,148.4z"/>
	<path class="st0" d="M1713,88c-10.2-10.2-15.3-22.4-15.3-36.7c0-14.3,5.1-26.4,15.3-36.4c10.2-10,22.4-15,36.7-15
		c14.3,0,26.4,5,36.4,15c10,10,15,22.1,15,36.4c0,14.3-5,26.5-15,36.7c-10,10.2-22.1,15.3-36.4,15.3
		C1735.4,103.3,1723.2,98.2,1713,88z"/>
	<path class="st0" d="M1719.1,148.4h60.4c8.2,0,14.9,6.7,14.9,14.9v321.5c0,8.2-6.7,14.9-14.9,14.9h-60.4c-8.2,0-14.9-6.7-14.9-14.9
		V163.3C1704.2,155.1,1710.9,148.4,1719.1,148.4z"/>
	<path class="st0" d="M1598.9,415.6c-15.4-0.1-26.2-3.7-32.6-11c-7.8-7.8-11.7-20.7-11.7-38.6V228.1c0-1.4,1.1-2.5,2.5-2.5h16.7
		c36.9,0,66.9-29.9,66.9-66.9v0c0-5.7-4.6-10.3-10.3-10.3h-75.8v-22c0-42.6-34.5-77.2-77.2-77.2h0c-7.2,0-13.1,5.9-13.1,13.1v320.2
		c0,38.1,10.8,67.5,32.4,88.2c9.2,9.2,21.1,16.4,35.8,21.7c14.7,5.3,30.8,7.9,48.2,7.9h47.8c8.2,0,14.9-6.7,14.9-14.9v-54.9
		c0-8.2-6.7-14.9-14.9-14.9H1598.9z"/>
	<g>
		<path class="st0" d="M1228.9,505.9c-88.8-2.6-158.3-77.8-158.3-166.6V162.3c0-7.8,6.3-14.1,14.1-14.1h62.4
			c7.3,0,13.2,5.9,13.2,13.2v179.2c0,38.3,28.3,71.8,66.4,75.3c43.7,4.1,80.6-30.3,80.6-73.2V224.4c0-42.1,34.1-76.2,76.2-76.2h0
			c7.4,0,13.4,6,13.4,13.4v181.1C1397,434.4,1321.1,508.6,1228.9,505.9z"/>
	</g>
</g>
</svg>
