<?xml version="1.0" encoding="utf-8"?>
<!-- Generator: Adobe Illustrator 25.0.1, SVG Export Plug-In . SVG Version: 6.00 Build 0)  -->
<svg version="1.1" id="Layer_1" xmlns="http://www.w3.org/2000/svg" xmlns:xlink="http://www.w3.org/1999/xlink" x="0px" y="0px"
	 viewBox="0 0 33 24" style="enable-background:new 0 0 33 24;" xml:space="preserve">
<style type="text/css">
	.st0{display:none;fill:#1E2935;}
	.st1{fill:#1E2935;}
</style>
<path class="st0" d="M31.3,0C31.3,0,31.3,0,31.3,0c-1,0-28.5,0-29.5,0C1.1,0,0.6,0.6,0.6,1.3v21.2c0,0.7,0.6,1.3,1.2,1.3h29.5
	c0.7,0,1.2-0.6,1.2-1.3V1.3C32.6,0.6,32,0,31.3,0z M29,2.5l-5.5,8.1H9.7L4.2,2.5H29z M30.1,21.3h-27v-16l5,7.3
	c0.2,0.3,0.6,0.5,1,0.5h15c0.4,0,0.8-0.2,1-0.5l5-7.3V21.3z"/>
<path class="st1" d="M26.6,14.3c-1.3-2.2-0.5-5,1.7-6.2L25.9,4c-0.7,0.4-1.5,0.6-2.3,0.6C21.1,4.6,19,2.5,19,0h-4.7
	c0,0.8-0.2,1.6-0.6,2.3C12.5,4.5,9.7,5.2,7.5,4L5.1,8c0.7,0.4,1.3,1,1.7,1.7c1.3,2.2,0.5,5-1.7,6.2L7.5,20c0.7-0.4,1.5-0.6,2.3-0.6
	c2.5,0,4.5,2,4.6,4.6H19c0-0.8,0.2-1.6,0.6-2.3c1.3-2.2,4-2.9,6.2-1.7l2.4-4.1C27.6,15.6,27,15,26.6,14.3z M16.7,16.9
	c-2.7,0-4.9-2.2-4.9-4.9s2.2-4.9,4.9-4.9c2.7,0,4.9,2.2,4.9,4.9S19.4,16.9,16.7,16.9z"/>
</svg>
