<svg width="32" height="32" viewBox="0 0 32 32" fill="none" xmlns="http://www.w3.org/2000/svg">
<path d="M30.9009 25.5998L25.1164 19.8148C23.9397 18.638 22.2123 18.428 20.8476 19.0813L18.8592 17.0927C20.2773 15.2943 21.1245 13.0258 21.1245 10.563C21.1245 4.73863 16.3863 0 10.5623 0C4.7382 0 0 4.73863 0 10.5631C0 16.3875 4.7382 21.1262 10.5623 21.1262C13.0249 21.1262 15.2932 20.2788 17.0914 18.8605L19.0798 20.8491C18.4262 22.2148 18.6372 23.9422 19.8133 25.1184L25.5978 30.9034C27.0599 32.3655 29.4389 32.3656 30.9009 30.9033C32.3663 29.4379 32.3666 27.0655 30.9009 25.5998V25.5998ZM10.5623 18.626C6.1167 18.626 2.49994 15.009 2.49994 10.5631C2.49994 6.11714 6.1167 2.50013 10.5623 2.50013C15.0078 2.50013 18.6246 6.11714 18.6246 10.5631C18.6246 15.009 15.0078 18.626 10.5623 18.626ZM29.1332 29.1356C28.6459 29.6229 27.8529 29.6229 27.3654 29.1355H27.3655L21.581 23.3505C21.0925 22.862 21.0924 22.0713 21.581 21.5826C22.0694 21.0942 22.8601 21.094 23.3487 21.5827L29.1332 27.3677C29.6216 27.8562 29.6217 28.6469 29.1332 29.1356V29.1356Z" fill="#1E2935"/>
</svg>
