Welcome to Tovuti
------------------------------------------------------------------------
    tovuti-master-v1.css
            ----------------------------------------------------------------           
            @import tovuti-root-typography.css
            
                (ROOT) Font Families
                (ROOT) Font Colors
                (ROOT) Font Sizes
                (ROOT) Font Line Heights

                H1,H2,H3,H4,H5,H6 (Sizes, Families, Line Heights)
            ----------------------------------------------------------------
            @import tovuti-root-borders.css

                (ROOT) Border Radius
                (ROOT) Border Width
                (ROOT) Border Style
            ----------------------------------------------------------------
            @import tovuti-root-spacing.css

                (ROOT) Padding
                (ROOT) Margin
            ----------------------------------------------------------------
            @import tovuti-root-effects.css

                (ROOT) Box Shadow
                (ROOT) Opacity
            --------------------------------------------------------------------   
            @import tovuti-root-forms.css

                
        ------------------------------------------------------------------------   
        @import tovuti-root.css

            (ROOT) Colors                    
            body
            :focus