<!-- Generated by IcoMoon.io -->
<svg version="1.1" xmlns="http://www.w3.org/2000/svg" width="34" height="32" viewBox="0 0 34 32">
<title>TEP-Connect-Icon-calendar</title>
<path fill="#666" d="M27.391 5.449h-18.579c-0.467 0.004-0.844 0.383-0.844 0.851 0 0.002 0 0.005 0 0.007v-0 13.932c0 3.187 2.551 5.781 5.693 5.781h8.88c3.139 0 5.693-2.594 5.693-5.781v-13.938c0-0 0-0.001 0-0.001 0-0.467-0.376-0.846-0.843-0.851h-0zM26.552 7.159v2.452h-16.895v-2.452zM22.542 24.306h-8.88c-2.203 0-4.005-1.824-4.005-4.066v-8.914h16.895v8.914c0 2.242-1.802 4.066-4.009 4.066z"></path>
<path fill="#666" d="M14.052 13.682h-1.033c-0.528 0.004-0.954 0.433-0.954 0.961 0 0.002 0 0.005 0 0.007v-0 1.044c-0 0.002-0 0.005-0 0.008 0 0.528 0.426 0.957 0.954 0.961h1.033c0.528-0.004 0.955-0.433 0.955-0.962 0-0.002 0-0.005-0-0.007v0-1.044c0-0.002 0-0.004 0-0.006 0-0.529-0.427-0.958-0.955-0.962h-0z"></path>
<path fill="#666" d="M18.543 13.682h-1.035c-0.528 0.005-0.954 0.434-0.954 0.962 0 0.002 0 0.004 0 0.006v-0 1.044c-0 0.002-0 0.005-0 0.007 0 0.529 0.426 0.958 0.954 0.962h1.034c0.529-0.004 0.955-0.433 0.955-0.962 0-0.002 0-0.005-0-0.007v0-1.044c0-0.002 0-0.004 0-0.006 0-0.528-0.426-0.957-0.953-0.962h-0z"></path>
<path fill="#666" d="M23.035 13.682h-1.033c-0.528 0.005-0.954 0.434-0.954 0.962 0 0.002 0 0.004 0 0.006v-0 1.044c-0 0.002-0 0.005-0 0.007 0 0.529 0.426 0.958 0.954 0.962h1.034c0.529-0.004 0.955-0.433 0.955-0.962 0-0.002 0-0.005-0-0.007v0-1.044c0-0.002 0-0.004 0-0.006 0-0.529-0.427-0.958-0.955-0.962h-0z"></path>
<path fill="#666" d="M14.052 18.32h-1.033c-0.528 0.005-0.954 0.434-0.954 0.962 0 0.002 0 0.005 0 0.007v-0 1.049c-0 0.002-0 0.005-0 0.008 0 0.528 0.426 0.957 0.954 0.961h1.033c0.528-0.004 0.955-0.433 0.955-0.962 0-0.002 0-0.005-0-0.007v0-1.049c0-0.002 0-0.004 0-0.006 0-0.529-0.427-0.959-0.955-0.963h-0z"></path>
<path fill="#666" d="M18.543 18.32h-1.035c-0.528 0.005-0.954 0.434-0.954 0.962 0 0.002 0 0.005 0 0.007v-0 1.049c-0 0.003-0 0.007-0 0.010 0 0.529 0.426 0.958 0.954 0.962h1.034c0.529-0.004 0.955-0.433 0.955-0.962 0-0.002 0-0.005-0-0.007v0-1.049c0-0.003 0-0.006 0-0.009 0-0.528-0.425-0.958-0.953-0.963h-0.001z"></path>
<path fill="#666" d="M23.035 18.32h-1.033c-0.528 0.005-0.954 0.434-0.954 0.962 0 0.002 0 0.005 0 0.007v-0 1.049c-0 0.002-0 0.005-0 0.007 0 0.529 0.426 0.958 0.954 0.962h1.034c0.529-0.004 0.955-0.433 0.955-0.962 0-0.002 0-0.005-0-0.007v0-1.049c0-0.002 0-0.004 0-0.006 0-0.529-0.427-0.959-0.955-0.963h-0z"></path>
</svg>
