<!-- Generated by IcoMoon.io -->
<svg version="1.1" xmlns="http://www.w3.org/2000/svg" width="34" height="32" viewBox="0 0 34 32">
<title>TEP-Connect-Icon-administrator</title>
<path fill="#666" d="M21.015 13.386l-4.12 3.372c-0.032 0.026-0.060 0.053-0.086 0.083l-0.001 0.001c-0.114 0.131-0.183 0.303-0.183 0.491 0 0.218 0.093 0.415 0.242 0.552l0.001 0c0.128 0.116 0.298 0.187 0.485 0.187 0.217 0 0.412-0.096 0.545-0.247l0.001-0.001 3.517-4.014c0.046-0.052 0.073-0.121 0.073-0.196 0-0.070-0.024-0.135-0.065-0.186l0 0.001c-0.053-0.066-0.134-0.109-0.225-0.109-0.070 0-0.135 0.025-0.185 0.067l0-0z"></path>
<path fill="#666" d="M17.392 6.769c-5.714 0-10.363 4.721-10.363 10.523v1.692c0 3.445 2.76 6.246 6.151 6.246h8.426c3.391 0 6.151-2.801 6.151-6.246v-1.692c0.005-5.802-4.645-10.523-10.364-10.523zM21.605 23.753h-8.421c-2.589 0-4.697-2.139-4.697-4.769v-1.139h1.591c0.295-0.014 0.529-0.256 0.529-0.554s-0.234-0.54-0.528-0.554l-0.001-0h-1.572c0.078-1.28 0.409-2.465 0.943-3.531l-0.024 0.052 1.358 0.797c0.077 0.047 0.171 0.074 0.27 0.074 0.001 0 0.001 0 0.002 0h-0c0.202-0 0.378-0.111 0.47-0.274l0.001-0.003c0.045-0.079 0.072-0.174 0.072-0.275 0-0.201-0.106-0.377-0.266-0.475l-0.002-0.001-1.36-0.802c0.67-1.017 1.506-1.866 2.478-2.531l0.031-0.020 0.785 1.382c0.094 0.167 0.27 0.277 0.472 0.277 0.101 0 0.195-0.028 0.276-0.076l-0.002 0.001c0.165-0.099 0.273-0.277 0.273-0.48 0-0.102-0.027-0.197-0.075-0.28l0.001 0.003-0.786-1.381c0.996-0.519 2.164-0.855 3.402-0.933l0.025-0.001v1.6c-0 0.008-0.001 0.016-0.001 0.025 0 0.302 0.244 0.546 0.546 0.546s0.546-0.245 0.546-0.546c0-0.009-0-0.018-0.001-0.026l0 0.001v-1.597c1.263 0.079 2.431 0.416 3.476 0.957l-0.049-0.023-0.786 1.381c-0.046 0.080-0.073 0.175-0.073 0.277 0 0.203 0.108 0.381 0.27 0.479l0.003 0.001c0.078 0.046 0.172 0.074 0.272 0.074 0.203 0 0.38-0.112 0.472-0.277l0.001-0.003 0.785-1.381c1.003 0.684 1.838 1.533 2.487 2.517l0.021 0.034-1.359 0.801c-0.165 0.099-0.274 0.277-0.274 0.48 0 0.102 0.027 0.197 0.075 0.279l-0.001-0.003c0.095 0.167 0.271 0.277 0.473 0.277v0c0.001 0 0.001 0 0.002 0 0.1 0 0.193-0.028 0.273-0.076l-0.002 0.001 1.361-0.798c0.511 1.013 0.842 2.199 0.918 3.453l0.001 0.026h-1.573c-0.295 0.014-0.529 0.256-0.529 0.554s0.234 0.54 0.528 0.554l0.001 0h1.592v1.139c0 2.626-2.108 4.765-4.697 4.765z"></path>
</svg>
