<!-- Generated by IcoMoon.io -->
<svg version="1.1" xmlns="http://www.w3.org/2000/svg" width="34" height="32" viewBox="0 0 34 32">
<title>TEP-Connect-Icon-inbox</title>
<path fill="#666" d="M22.994 8.164h-12.29c-2.75 0-4.989 2.271-4.989 5.068v7.46c0 2.794 2.239 5.067 4.991 5.067h12.29c2.753 0 4.986-2.273 4.986-5.067v-7.46c0.002-2.797-2.235-5.068-4.988-5.068zM22.994 9.63c0.56 0.001 1.088 0.134 1.556 0.37l-0.020-0.009-7.687 6.804-7.684-6.8c0.45-0.229 0.982-0.363 1.545-0.364h0zM26.541 20.692c0 1.985-1.591 3.594-3.547 3.594h-12.29c-1.963-0.017-3.548-1.612-3.548-3.578 0-0.006 0-0.012 0-0.017v0.001-7.46c0-0 0-0 0-0 0-0.885 0.318-1.695 0.845-2.324l-0.005 0.006c0.003 0.004 0.007 0.008 0.010 0.012l0 0 8.362 7.395c0.126 0.112 0.292 0.18 0.474 0.18s0.349-0.068 0.475-0.18l-0.001 0.001 8.306-7.348c0.026-0.023 0.049-0.048 0.070-0.074l0.001-0.001c0.529 0.625 0.851 1.441 0.851 2.332 0 0.001 0 0.002 0 0.004v-0z"></path>
</svg>
