<!-- Generated by IcoMoon.io -->
<svg version="1.1" xmlns="http://www.w3.org/2000/svg" width="24" height="24" viewBox="0 0 24 24">
<title>folder3</title>
<path d="M14 4v-1c0-1.104-0.896-2-2-2h-4c-1.104 0-2 0.896-2 2v1h-4v3h-1v16h22v-19h-9zM21 21h-18v-12h18v12zM21 7h-17v-1h4v-3h4v3h9v1z"></path>
</svg>
