<?xml version="1.0" encoding="utf-8"?>
<!-- Generator: Adobe Illustrator 24.0.1, SVG Export Plug-In . SVG Version: 6.00 Build 0)  -->
<svg version="1.1" xmlns="http://www.w3.org/2000/svg" xmlns:xlink="http://www.w3.org/1999/xlink" x="0px" y="0px"
	 viewBox="0 0 1200 800" style="enable-background:new 0 0 1200 800;" xml:space="preserve">
<style type="text/css">
	.st0{fill:#1E2935;}
	.st1{clip-path:url(#SVGID_2_);}
	.st2{fill:none;stroke:#EA8931;stroke-width:2;stroke-miterlimit:10;}
	.st3{fill:none;stroke:#60B1C8;stroke-width:2;stroke-miterlimit:10;}
	.st4{fill:none;stroke:#00A292;stroke-width:2;stroke-miterlimit:10;}
	.st5{fill:none;stroke:#E53387;stroke-width:2;stroke-miterlimit:10;}
	.st6{fill:none;stroke:#7147B7;stroke-width:2;stroke-miterlimit:10;}
</style>
<g id="Background">
	<rect class="st0" width="1200" height="800"/>
</g>
<g id="Pattern">
	<g>
		<defs>
			<rect id="SVGID_1_" width="1200" height="800"/>
		</defs>
		<clipPath id="SVGID_2_">
			<use xlink:href="#SVGID_1_"  style="overflow:visible;"/>
		</clipPath>
		<g class="st1">
			<polygon class="st2" points="220.4,208.7 84.2,241.3 104.7,161.2 240.9,128.5 			"/>
			<g>
				<g>
					<path class="st2" d="M339.4,620.3c-9.1-3.8-19.9-2-27.3,5.4c-7.4,7.4-9.2,18.2-5.4,27.3"/>
					<path class="st2" d="M320.1,666.4c9.1,3.8,19.9,2,27.3-5.4c7.4-7.4,9.2-18.2,5.4-27.3"/>
				</g>
			</g>
			<g>
				<g>
					<path class="st2" d="M209.3,90.1c-4.4-1.9-9.8-1-13.4,2.6c-3.6,3.6-4.5,8.9-2.6,13.4"/>
					<path class="st2" d="M199.9,112.7c4.4,1.9,9.8,1,13.4-2.6c3.6-3.6,4.5-8.9,2.6-13.4"/>
				</g>
			</g>
			<circle class="st2" cx="115.6" cy="283.6" r="8"/>
			<circle class="st2" cx="84.6" cy="402.1" r="8"/>
			<circle class="st2" cx="612.4" cy="169.1" r="8"/>
			<circle class="st2" cx="913.5" cy="386.6" r="8"/>
			<circle class="st2" cx="107.6" cy="776.8" r="8"/>
			<circle class="st2" cx="677.1" cy="479.8" r="8"/>
			<circle class="st2" cx="694.8" cy="86.6" r="8"/>
			<circle class="st2" cx="962.2" cy="268.4" r="8"/>
			<ellipse class="st2" cx="59.6" cy="37.9" rx="14.7" ry="14.7"/>
			
				<rect x="411.7" y="721.6" transform="matrix(0.6069 0.7948 -0.7948 0.6069 764.3215 -53.3257)" class="st2" width="48.8" height="48.8"/>
			<polyline class="st2" points="255.6,656 175.9,548.8 91.7,516.5 1,399.8 			"/>
			<polygon class="st2" points="878.3,208.7 742.2,241.3 762.6,161.2 898.8,128.5 			"/>
			<polygon class="st2" points="799.1,600.4 761,603.1 782.4,634.8 			"/>
			<polygon class="st2" points="364.8,368.6 340.3,397.9 378,404.5 			"/>
			<g>
				<g>
					<path class="st2" d="M632.1,741.3c-6.9-2.9-15.2-1.5-20.8,4.1c-5.6,5.6-7,13.9-4.1,20.8"/>
					<path class="st2" d="M617.4,776.4c6.9,2.9,15.2,1.5,20.8-4.1c5.6-5.6,7-13.9,4.1-20.8"/>
				</g>
			</g>
			<g>
				<g>
					<path class="st2" d="M1155.8,243.8c-6.1-2.6-13.5-1.4-18.5,3.6s-6.2,12.3-3.6,18.5"/>
					<path class="st2" d="M1142.7,275.1c6.1,2.6,13.5,1.4,18.5-3.6s6.2-12.3,3.6-18.5"/>
				</g>
			</g>
			<circle class="st2" cx="773.5" cy="283.6" r="8"/>
			<ellipse class="st2" cx="705.3" cy="11.6" rx="20.2" ry="20.2"/>
			<ellipse class="st2" cx="1025" cy="416.8" rx="30.3" ry="30.3"/>
			
				<rect x="1006.4" y="728.1" transform="matrix(0.4317 0.902 -0.902 0.4317 1300.3521 -510.3588)" class="st2" width="97.6" height="97.6"/>
		</g>
		<g class="st1">
			<polygon class="st3" points="294.1,-38.4 284.7,82.7 394.2,30.3 			"/>
			<polygon class="st3" points="916.8,302.7 913.6,344.5 951.4,326.4 			"/>
			<polygon class="st3" points="540.6,783.7 571.8,751.2 528.1,740.4 			"/>
			<g>
				<g>
					<path class="st3" d="M265.3,311.6c7.1-3,15.6-1.6,21.3,4.2c5.8,5.8,7.2,14.2,4.2,21.3"/>
					<path class="st3" d="M280.4,347.6c-7.1,3-15.6,1.6-21.3-4.2c-5.8-5.8-7.2-14.2-4.2-21.3"/>
				</g>
			</g>
			<g>
				<g>
					<path class="st3" d="M522.6,141.1c-5-2.1-11.1-1-15.2,3.1c-4.1,4.1-5.2,10.2-3.1,15.2"/>
					<path class="st3" d="M511.7,166.8c5,2.1,11.1,1,15.2-3.1s5.2-10.2,3.1-15.2"/>
				</g>
			</g>
			<polygon class="st3" points="952,-38.4 942.6,82.7 1052.2,30.3 			"/>
			<polygon class="st3" points="1198.6,783.7 1229.7,751.2 1186,740.4 			"/>
			<g>
				<g>
					<path class="st3" d="M29.4,509.4c-10.1-4.2-22.2-2.2-30.4,6c-8.2,8.2-10.2,20.3-6,30.4"/>
					<path class="st3" d="M8,560.7c10.1,4.2,22.2,2.2,30.4-6c8.2-8.2,10.2-20.3,6-30.4"/>
				</g>
			</g>
			
				<rect x="623.3" y="213.5" transform="matrix(0.6069 0.7948 -0.7948 0.6069 445.6907 -421.9676)" class="st3" width="52.2" height="52.2"/>
			<circle class="st3" cx="1163.2" cy="440.1" r="8"/>
		</g>
		<g class="st1">
			<g>
				<path class="st4" d="M689.4,332.1c-5.9-2.5-13-1.4-17.8,3.4s-5.9,11.8-3.4,17.7"/>
				<path class="st4" d="M677.1,362c5.9,2.5,13,1.4,17.8-3.4s5.9-11.8,3.4-17.7"/>
			</g>
			<g>
				<path class="st4" d="M680.7,541.1c4.1-1.7,9.1-0.9,12.4,2.4s4.2,8.3,2.5,12.4"/>
				<path class="st4" d="M689.4,562.1c-4.1,1.7-9.1,0.9-12.4-2.4s-4.2-8.3-2.5-12.4"/>
			</g>
			<ellipse class="st4" cx="440.7" cy="432.3" rx="30.3" ry="30.3"/>
			<polyline class="st4" points="153.9,86.6 143,51.5 116.1,67.5 102.6,31.1 			"/>
			<polyline class="st4" points="464.2,276 499.1,264.5 482.7,237.9 518.8,223.8 			"/>
			<polyline class="st4" points="356.8,572.7 374.2,540.4 344,532.4 360.6,497.3 			"/>
			<polygon class="st4" points="719,758.9 604.4,692.9 670.5,651.2 785.1,717.2 			"/>
			<polyline class="st4" points="913.5,656 833.9,548.8 749.6,516.5 658.9,399.8 			"/>
			<polyline class="st4" points="811.8,86.6 800.9,51.5 774.1,67.5 760.6,31.1 			"/>
			<polyline class="st4" points="1088.7,211 1123.5,199.5 1107.1,172.9 1143.2,158.8 			"/>
			<polyline class="st4" points="1037.8,568.4 1055.2,536 1025,528 1041.6,492.9 			"/>
			<circle class="st4" cx="1017.1" cy="123.7" r="8"/>
		</g>
		<g class="st1">
			<polygon class="st5" points="62.5,762.1 -58.8,692.2 11.1,648 132.5,717.9 			"/>
			<polygon class="st5" points="470.7,534.2 631.6,443.3 634.7,552.4 473.8,643.3 			"/>
			<circle class="st5" cx="39.6" cy="211" r="8"/>
			<polyline class="st5" points="550.7,-31.8 449.1,54.9 422.6,141.2 312.3,239.6 			"/>
			<polyline class="st5" points="74.4,432.3 129.8,423.8 111.8,379.7 169.8,367.7 			"/>
			<circle class="st5" cx="359.1" cy="123.7" r="8"/>
			<line class="st5" x1="772.3" y1="764.3" x2="758.8" y2="827.6"/>
			<line class="st5" x1="335.5" y1="768.1" x2="313.9" y2="814.8"/>
			<polygon class="st5" points="1125.3,512.3 1321,456.9 1296,574.4 1100.4,629.8 			"/>
			<polyline class="st5" points="1208.7,-31.8 1107,54.9 1080.5,141.2 970.2,239.6 			"/>
			<line class="st5" x1="1055.2" y1="275.6" x2="1102.1" y2="322"/>
			<line class="st5" x1="232.1" y1="354.8" x2="279" y2="401.2"/>
		</g>
		<g class="st1">
			<polygon class="st6" points="625.5,307.6 504.3,316.1 572.3,416.7 			"/>
			<polygon class="st6" points="126.7,623.4 88.6,626.1 110,657.8 			"/>
			
				<rect x="-13.1" y="109.4" transform="matrix(0.6069 0.7948 -0.7948 0.6069 112.7628 42.9251)" class="st6" width="52.2" height="52.2"/>
			
				<rect x="161.3" y="760.3" transform="matrix(0.6069 0.7948 -0.7948 0.6069 698.601 160.1949)" class="st6" width="52.2" height="52.2"/>
			<circle class="st6" cx="420.7" cy="673.7" r="8"/>
			<line class="st6" x1="192.4" y1="257.2" x2="169.4" y2="303.9"/>
			<polygon class="st6" points="1265.4,306.1 1144.2,314.6 1212.2,415.2 			"/>
			
				<rect x="819.2" y="760.3" transform="matrix(0.6069 0.7948 -0.7948 0.6069 957.2281 -362.7174)" class="st6" width="52.2" height="52.2"/>
			<polyline class="st6" points="732.3,432.3 787.7,423.8 769.8,379.7 827.7,367.7 			"/>
			<circle class="st6" cx="1078.7" cy="673.7" r="8"/>
			<line class="st6" x1="937.6" y1="416.4" x2="924" y2="479.7"/>
		</g>
		<g class="st1">
			<polygon class="st2" points="49.2,266.3 -31.3,272 13.8,338.9 			"/>
			<circle class="st2" cx="44.9" cy="623.4" r="8"/>
			<circle class="st2" cx="525.1" cy="432.1" r="8"/>
			<ellipse class="st2" cx="313.9" cy="145.2" rx="21.6" ry="21.6"/>
			<ellipse class="st2" cx="174.7" cy="492" rx="12.2" ry="12.2"/>
			<ellipse class="st2" cx="192.4" cy="673.7" rx="17.6" ry="17.6"/>
			<line class="st2" x1="397.3" y1="275.6" x2="444.2" y2="322"/>
			<line class="st2" x1="561.7" y1="52.6" x2="491.3" y2="78.3"/>
			<line class="st2" x1="219.4" y1="31.1" x2="132.5" y2="-31.8"/>
			<line class="st2" x1="295" y1="483.7" x2="281.5" y2="547"/>
			<line class="st2" x1="531" y1="658.1" x2="615.6" y2="644.3"/>
			<line class="st2" x1="251.7" y1="752.9" x2="336.3" y2="739.1"/>
			<polygon class="st2" points="647.6,49.6 586.6,102.4 662.9,128.8 			"/>
			<g>
				<g>
					<path class="st2" d="M982.9,552.5c-13.6-5.7-29.8-3-40.8,8.1c-11,11-13.7,27.3-8.1,40.8"/>
					<path class="st2" d="M954,621.4c13.6,5.7,29.8,3,40.8-8.1c11-11,13.7-27.3,8.1-40.8"/>
				</g>
			</g>
			<circle class="st2" cx="702.8" cy="623.4" r="8"/>
			<ellipse class="st2" cx="971.9" cy="145.2" rx="21.6" ry="21.6"/>
			<ellipse class="st2" cx="832.7" cy="492" rx="12.2" ry="12.2"/>
			<ellipse class="st2" cx="850.3" cy="673.7" rx="25.6" ry="25.6"/>
			<line class="st2" x1="850.3" y1="257.2" x2="827.3" y2="303.9"/>
			<line class="st2" x1="1219.7" y1="52.6" x2="1149.2" y2="78.3"/>
			<line class="st2" x1="877.4" y1="31.1" x2="790.4" y2="-31.8"/>
			<line class="st2" x1="1179" y1="698.2" x2="1263.6" y2="684.4"/>
			<line class="st2" x1="967.7" y1="704.7" x2="946.2" y2="751.5"/>
		</g>
	</g>
</g>
</svg>
