<?xml version="1.0" encoding="utf-8"?>
<!-- Generated by IcoMoon.io -->
<!DOCTYPE svg PUBLIC "-//W3C//DTD SVG 1.1//EN" "http://www.w3.org/Graphics/SVG/1.1/DTD/svg11.dtd">
<svg version="1.1" xmlns="http://www.w3.org/2000/svg" xmlns:xlink="http://www.w3.org/1999/xlink" width="32" height="32" viewBox="0 0 32 32">
<path fill="#555655" d="M4.048 22.352l7.056-7.056-6.304-6.32-0.736-0.752c-3.904 3.888-3.904 10.24-0.016 14.128z"></path>
<path fill="#555655" d="M5.76 8.688l6.64 6.64-6.24 6.224-0.464 0.48-0.256 0.256c3.84 3.84 10.096 3.84 13.936 0 3.84-3.856 3.84-10.112 0-13.952-3.856-3.824-10.096-3.824-13.936 0.016l0.32 0.336zM18.64 9.088c3.44 3.424 3.44 9.024 0 12.464-3.168 3.184-8.16 3.408-11.632 0.752l6.928-6.928-0.528-0.512-0.288-0.288-6.16-6.176c3.44-2.736 8.496-2.496 11.68 0.688z"></path>
<path fill="#555655" d="M22.56 10.928h1.28v5.216h-1.28v-5.216z"></path>
<path fill="#555655" d="M24.544 9.312h1.264v6.832h-1.264v-6.832z"></path>
<path fill="#555655" d="M26.496 7.424h1.28v8.72h-1.28v-8.72z"></path>
<path fill="#555655" d="M21.104 16.72h10.064v0.96h-10.064v-0.96z"></path>
<path fill="#555655" d="M28.544 9.456h1.264v6.56h-1.264v-6.56z"></path>
</svg>
