<?xml version="1.0" encoding="utf-8"?>
<!-- Generated by IcoMoon.io -->
<!DOCTYPE svg PUBLIC "-//W3C//DTD SVG 1.1//EN" "http://www.w3.org/Graphics/SVG/1.1/DTD/svg11.dtd">
<svg version="1.1" xmlns="http://www.w3.org/2000/svg" xmlns:xlink="http://www.w3.org/1999/xlink" width="32" height="32" viewBox="0 0 32 32">
<path fill="#444" d="M30.224 19.76c-1.216-0.864-3.072-0.4-4.224-1.936 0 0-0.432-0.48 0.544-1.664s1.056-3.072 0.8-4.528c-0.24-1.456-1.616-2.416-3.040-2.416s-2.8 0.976-3.040 2.416c-0.24 1.456-0.16 3.344 0.8 4.528 0.496 0.592 0.624 1.024 0.64 1.28 0.448 0.144 0.896 0.352 1.312 0.64 1.824 1.296 1.728 3.808 1.664 4.512h5.456c0.016 0 0.304-1.968-0.912-2.832z"></path>
<path fill="#444" d="M7.936 18.080c0.432-0.304 0.896-0.512 1.36-0.656 0.016-0.272 0.144-0.688 0.64-1.28 0.976-1.184 1.056-3.072 0.8-4.528-0.24-1.456-1.616-2.416-3.040-2.416s-2.8 0.976-3.040 2.416c-0.24 1.456-0.16 3.344 0.8 4.528 0.976 1.184 0.544 1.664 0.544 1.664-1.152 1.536-3.008 1.072-4.224 1.936s-0.912 2.832-0.912 2.832h5.424c-0.080-0.688-0.176-3.184 1.648-4.496z"></path>
<path fill="#444" d="M23.312 19.088c-0.416-0.304-0.896-0.464-1.408-0.592-1.312-0.336-2.784-0.432-3.824-1.792 0 0-0.528-0.592 0.672-2.064s1.296-3.792 0.992-5.6c-0.304-1.792-2-2.992-3.76-2.992s-3.456 1.2-3.76 2.992c-0.304 1.792-0.192 4.128 0.992 5.6 1.2 1.472 0.672 2.064 0.672 2.064-1.024 1.36-2.496 1.456-3.792 1.792-0.512 0.128-1.008 0.304-1.44 0.608-1.504 1.072-1.136 3.488-1.136 3.488h16.912c0 0 0.368-2.432-1.12-3.504z"></path>
</svg>
