<?xml version="1.0" encoding="utf-8"?>
<!-- Generated by IcoMoon.io -->
<!DOCTYPE svg PUBLIC "-//W3C//DTD SVG 1.1//EN" "http://www.w3.org/Graphics/SVG/1.1/DTD/svg11.dtd">
<svg version="1.1" xmlns="http://www.w3.org/2000/svg" xmlns:xlink="http://www.w3.org/1999/xlink" width="16" height="16" viewBox="0 0 16 16">
<path fill="#444" d="M2.381 0.758l-0.537 2.686h10.934l-0.342 1.735h-10.94l-0.53 2.686h10.933l-0.61 3.063-4.406 1.46-3.819-1.46 0.261-1.329h-2.686l-0.639 3.224 6.316 2.417 7.281-2.417 2.403-12.066z"></path>
</svg>
