<?xml version="1.0" encoding="utf-8"?>
<!-- Generated by IcoMoon.io -->
<!DOCTYPE svg PUBLIC "-//W3C//DTD SVG 1.1//EN" "http://www.w3.org/Graphics/SVG/1.1/DTD/svg11.dtd">
<svg version="1.1" xmlns="http://www.w3.org/2000/svg" xmlns:xlink="http://www.w3.org/1999/xlink" width="32" height="32" viewBox="0 0 32 32">
<path fill="#787878" d="M2.416 16.16v0.608h1.312c0-0.096 0-0.192 0-0.304s0-0.208 0-0.304h-1.312z"></path>
<path fill="#787878" d="M16.736 16.464c0 0.096 0 0.192-0.016 0.304h1.264v-0.608h-1.264c0.016 0.096 0.016 0.192 0.016 0.304z"></path>
<path fill="#787878" d="M10.64 9.792v-1.008h-0.608v1.008c0.096 0 0.192 0 0.304 0s0.208 0 0.304 0z"></path>
<path fill="#787878" d="M14.144 12.24c0.144 0.128 0.288 0.272 0.416 0.432l0.96-0.96-0.432-0.432-0.944 0.96z"></path>
<path fill="#787878" d="M5.152 21.232l0.432 0.416 0.96-0.96c-0.144-0.128-0.288-0.288-0.432-0.432l-0.96 0.976z"></path>
<path fill="#787878" d="M5.152 11.696l0.96 0.96c0.128-0.16 0.272-0.304 0.432-0.432l-0.96-0.96-0.432 0.432z"></path>
<path fill="#787878" d="M14.144 20.688l0.96 0.96 0.432-0.416-0.96-0.96c-0.144 0.144-0.288 0.288-0.432 0.416z"></path>
<path fill="#787878" d="M10.224 15.344c-0.208 0-0.384 0.048-0.544 0.16l-2.656-2.672c-0.048-0.032-0.128-0.016-0.192 0.048s-0.096 0.16-0.048 0.192l2.64 2.656c-0.144 0.176-0.224 0.384-0.224 0.64 0 0.56 0.448 1.024 1.024 1.024 0.56 0 1.024-0.464 1.024-1.024 0-0.576-0.464-1.024-1.024-1.024z"></path>
<path fill="#787878" d="M25.296 10.432c-2.016 0-3.824 0.928-5.024 2.368-0.096 0.128-0.192 0.24-0.288 0.384-0.448-1.232-1.12-2.368-1.968-3.328l-0.88-0.88c-0.016 0-0.016-0.016-0.016-0.016-1.808-1.6-4.16-2.56-6.736-2.56-5.632 0-10.208 4.56-10.208 10.192 0 3.168 1.44 5.984 3.696 7.856 0.528 0.432 1.104 0.832 1.712 1.136 0 0 0 0 0 0s0 0 0 0h9.568c0 0 0 0 0 0s0 0 0.016 0c2.080-1.104 3.728-2.912 4.64-5.12 1.168 1.792 3.184 2.992 5.488 2.992 1.664 0 3.168-0.624 4.32-1.648l0.56-0.56c0 0 0.016-0.016 0.016-0.016 1.008-1.152 1.632-2.656 1.632-4.304 0-3.584-2.928-6.496-6.528-6.496zM18.736 19.792l-1.872-0.688-0.144 0.368 1.856 0.688c-0.768 1.808-2.128 3.296-3.824 4.256-0.784-1.632-2.448-2.752-4.384-2.752s-3.6 1.12-4.384 2.752c-1.728-0.976-3.104-2.528-3.872-4.384l1.44-0.656-0.16-0.368-1.424 0.656c-0.336-0.944-0.528-1.968-0.528-3.024 0-1.168 0.224-2.272 0.624-3.296l1.84 0.688 0.144-0.368-1.808-0.72c0.944-2.080 2.656-3.744 4.768-4.608l0.88 1.936 0.352-0.16-0.864-1.904c0.944-0.336 1.952-0.528 3.008-0.528 1.104 0 2.16 0.208 3.136 0.576l-0.72 1.904 0.368 0.144 0.704-1.904c2.016 0.864 3.648 2.448 4.576 4.416l-1.968 0.912 0.16 0.368 1.984-0.912c0.448 1.056 0.688 2.208 0.688 3.44 0 1.12-0.208 2.176-0.576 3.168zM30.544 19.2c-0.56 1.296-1.568 2.336-2.832 2.928l-0.576-1.28-0.224 0.112 0.576 1.28c-0.672 0.272-1.424 0.432-2.192 0.432-0.704 0-1.392-0.128-2.016-0.368l0.448-1.2-0.24-0.080-0.448 1.184c-1.152-0.496-2.112-1.36-2.72-2.448 1.040-0.496 1.76-1.568 1.76-2.8s-0.72-2.304-1.76-2.8c0.624-1.12 1.616-2 2.8-2.48l0.416 0.928 0.24-0.096-0.416-0.912c0.608-0.224 1.248-0.336 1.936-0.336 0.752 0 1.456 0.144 2.112 0.4l-0.448 1.184 0.24 0.080 0.432-1.168c1.328 0.592 2.384 1.696 2.944 3.040l-1.232 0.56 0.112 0.224 1.216-0.56c0.224 0.592 0.336 1.248 0.336 1.92 0 0.704-0.128 1.376-0.368 2l-1.232-0.464-0.080 0.24 1.216 0.48z"></path>
<path fill="#787878" d="M25.584 12.688v-0.832h-0.384v0.832c0.064 0 0.128 0 0.192 0s0.128 0 0.192 0z"></path>
<path fill="#787878" d="M25.184 21.024v0.8h0.384v-0.8c-0.064 0-0.128 0-0.192 0s-0.112 0-0.192 0z"></path>
<path fill="#787878" d="M30.304 17.12v-0.384h-0.64c0 0.064 0 0.128 0 0.192s0 0.128 0 0.192h0.64z"></path>
<path fill="#787878" d="M27.808 19.632l0.624 0.624 0.272-0.272-0.624-0.608c-0.080 0.080-0.16 0.176-0.272 0.256z"></path>
<path fill="#787878" d="M22.064 13.888l0.624 0.608c0.080-0.096 0.176-0.192 0.272-0.272l-0.624-0.608-0.272 0.272z"></path>
<path fill="#787878" d="M27.808 14.224c0.096 0.080 0.192 0.176 0.272 0.272l0.624-0.608-0.272-0.272-0.624 0.608z"></path>
<path fill="#787878" d="M22.064 19.984l0.272 0.272 0.624-0.624c-0.096-0.080-0.176-0.176-0.272-0.272l-0.624 0.624z"></path>
<path fill="#787878" d="M27.552 14.656l-1.696 1.696c-0.112-0.080-0.256-0.144-0.416-0.144-0.352 0-0.656 0.304-0.656 0.656 0 0.368 0.288 0.656 0.656 0.656s0.656-0.288 0.656-0.656c0-0.128-0.032-0.24-0.096-0.352l1.696-1.696c0.032-0.016 0.016-0.080-0.032-0.128-0.032-0.048-0.096-0.048-0.112-0.032z"></path>
</svg>
