<?xml version="1.0" encoding="utf-8"?>
<!-- Generated by IcoMoon.io -->
<!DOCTYPE svg PUBLIC "-//W3C//DTD SVG 1.1//EN" "http://www.w3.org/Graphics/SVG/1.1/DTD/svg11.dtd">
<svg version="1.1" xmlns="http://www.w3.org/2000/svg" xmlns:xlink="http://www.w3.org/1999/xlink" width="32" height="32" viewBox="0 0 32 32">
<path fill="#787878" d="M17.712 8.464c0.048-0.048 0.096-0.096 0.144-0.128 0.32-0.272 0.688-0.64 1.056-1.072 0.304-0.368 0.608-0.784 0.88-1.232 0.304-0.544 0.56-1.168 0.656-1.808 0.080-0.608 0.016-1.2-0.176-1.776-0.176-0.512-0.464-1.008-0.832-1.488-0.128-0.144-0.272-0.304-0.416-0.48-0.272 0.256-0.928 0.864-1.488 1.76-0.096 0.176-0.192 0.352-0.304 0.528-0.976 1.92-0.944 3.936 0.176 5.952 0.080-0.080 0.192-0.16 0.304-0.256z"></path>
<path fill="#787878" d="M11.824 5.92c1.072 1.088 2.448 1.488 4.080 1.2-0.016-0.048-0.048-0.144-0.096-0.24-0.016-0.048-0.032-0.096-0.048-0.128-0.096-0.272-0.272-0.624-0.48-0.976-0.176-0.288-0.4-0.576-0.624-0.864-0.304-0.336-0.672-0.64-1.088-0.832-0.4-0.208-0.8-0.304-1.248-0.304-0.384 0-0.784 0.096-1.2 0.24-0.128 0.064-0.272 0.112-0.4 0.176 0.112 0.24 0.368 0.816 0.848 1.408 0.064 0.080 0.16 0.192 0.256 0.32z"></path>
<path fill="#787878" d="M26.256 13.296c-0.496-0.704-1.232-1.376-2.112-1.888v0c-2.688-1.728-6.448-0.128-6.448-0.128-0.416 0.096-0.864 0.144-1.44 0.080-0.064-0.56 0.304-1.152 0.64-1.712-0.272-0.656-0.448-1.28-0.576-1.76-0.016-0.080-0.032-0.16-0.048-0.24-0.16 0-0.272 0.048-0.384 0.144-0.352 0.32-0.624 1.392-0.784 2v0c0 0-0.4 1.28-0.416 1.408-1.504-0.384-2.48-1.024-4.016-1.136-0.208-0.016-0.448-0.016-0.688 0-0.48 0.048-0.96 0.16-1.408 0.32l-0.016-0.016c0 0-2.416 0.576-3.968 3.216v0c-1.072 1.824-1.744 4.672-0.832 9.008v0c0.448 2.272 1.392 4.528 2.512 5.984 0.816 1.056 2.416 2.368 3.824 2.72 0.992 0.256 2.336-0.032 3.072-0.24 0.4-0.112 0.832-0.384 1.28-0.448 1.28-0.208 1.984 0.384 2.832 0.688v0c0 0 1.44 0.736 3.104-0.464v0c0.096-0.064 0.176-0.128 0.272-0.192 1.616-1.216 2.896-3.008 4.112-4.528 1.312-2.368 2.768-4.592 3.024-7.84 0.16-2.032-0.576-3.664-1.536-4.976zM21.152 17.456c-0.864 0-1.552-0.736-1.552-1.632 0-0.88 0.704-1.6 1.552-1.6 0.88 0 1.568 0.72 1.568 1.6 0 0.896-0.704 1.632-1.568 1.632z"></path>
</svg>
