<?xml version="1.0" encoding="utf-8"?>
<!-- Generated by IcoMoon.io -->
<!DOCTYPE svg PUBLIC "-//W3C//DTD SVG 1.1//EN" "http://www.w3.org/Graphics/SVG/1.1/DTD/svg11.dtd">
<svg version="1.1" xmlns="http://www.w3.org/2000/svg" xmlns:xlink="http://www.w3.org/1999/xlink" width="16" height="16" viewBox="0 0 16 16">
<path fill="#444" d="M15.698 7.287l-6.986-6.986c-0.402-0.402-1.055-0.402-1.457 0l-1.623 1.623 1.221 1.221c0.196-0.094 0.415-0.146 0.647-0.146 0.828 0 1.5 0.672 1.5 1.5 0 0.232-0.053 0.451-0.146 0.647l2 2c0.196-0.094 0.415-0.146 0.647-0.146 0.828 0 1.5 0.672 1.5 1.5s-0.672 1.5-1.5 1.5-1.5-0.672-1.5-1.5c0-0.232 0.053-0.451 0.146-0.647l-2-2c-0.048 0.023-0.097 0.043-0.147 0.061v4.171c0.583 0.206 1 0.761 1 1.414 0 0.828-0.672 1.5-1.5 1.5s-1.5-0.672-1.5-1.5c0-0.653 0.417-1.208 1-1.414v-4.171c-0.583-0.206-1-0.761-1-1.414 0-0.232 0.053-0.451 0.146-0.647l-1.221-1.221-4.623 4.623c-0.402 0.403-0.402 1.055 0 1.458l6.986 6.986c0.402 0.402 1.054 0.402 1.457 0l6.953-6.953c0.402-0.403 0.402-1.055-0-1.458z"></path>
</svg>
