<?xml version="1.0" encoding="utf-8"?>
<!-- Generated by IcoMoon.io -->
<!DOCTYPE svg PUBLIC "-//W3C//DTD SVG 1.1//EN" "http://www.w3.org/Graphics/SVG/1.1/DTD/svg11.dtd">
<svg version="1.1" xmlns="http://www.w3.org/2000/svg" xmlns:xlink="http://www.w3.org/1999/xlink" width="32" height="32" viewBox="0 0 32 32">
<path fill="#444" d="M2.064 19.824v7.6h6.912v-7.6h-6.912zM20.224 4.72l-8.512 0.128 1.504 2.512-10.928 6.304 1.392 2.4 10.944-6.336 1.44 2.416 4.16-7.424zM25.040 2.416v0c1.552 0 2.832 1.264 2.832 2.832s-1.264 2.832-2.832 2.832c-1.568 0-2.832-1.264-2.832-2.832s1.264-2.832 2.832-2.832zM20.192 16.176l1.36-7.36c7.552 0-0.688 0 6.896 0l1.472 7.52-1.808 1.184 0.384 9.92h-2.432l-0.528-8.448h-1.104l-0.432 8.448h-2.592l0.576-9.92c-0.592-0.448-1.2-0.896-1.792-1.344zM11.472 15.568h6.912v11.856h-6.912v-11.856z"></path>
</svg>
