<svg width="32" alt="" height="32" viewBox="0 0 32 32" fill="none" xmlns="http://www.w3.org/2000/svg">
<rect width="32" height="32" fill="var(--icon-color)" fill-opacity="0.01"/>
<path d="M10.8562 8L13.5 1.26875C13.8 0.503312 14.5438 0 15.3625 0H16.6375C17.4563 0 18.2 0.503312 18.4438 1.26875L21.1437 8H10.8562ZM22.7125 12L25.0688 18H6.93125L9.2875 12H22.7125ZM3 28L5.35687 22H26.6437L29 28H30C31.1063 28 32 28.8937 32 30C32 31.1063 31.1063 32 30 32H2C0.895625 32 0 31.1063 0 30C0 28.8937 0.895625 28 2 28H3Z" fill="var(--icon-color)"/>
</svg>
