<svg width="132" height="37" viewBox="0 0 132 37" fill="none" xmlns="http://www.w3.org/2000/svg">
<path d="M49.4282 28.8889C48.2885 29.1081 47.1049 28.845 46.0966 28.2313C44.8253 27.3984 44.0362 25.9518 44.0362 24.4175C44.0362 24.1544 44.2554 23.9791 44.4746 23.9791C44.6938 23.9791 44.913 24.1983 44.913 24.4175C44.913 24.7243 44.9568 24.9873 45.0006 25.2942C45.2637 26.434 46.0966 27.3984 47.2364 27.8368C49.2529 20.7351 45.0883 13.3266 37.9866 11.3539C30.885 9.38117 23.5202 13.4142 21.5037 20.5598C19.7502 26.9162 22.8627 33.6233 28.8684 36.3413C28.9999 36.4289 29.2191 36.3413 29.263 36.2098C29.3068 36.1221 29.3068 36.0344 29.263 35.9467C28.0794 33.448 29.1315 30.467 31.6302 29.3273C34.1289 28.1875 37.1099 29.1957 38.2497 31.6945C38.5565 32.3521 38.7319 33.0973 38.7319 33.8425C38.7319 34.6754 38.5565 35.4645 38.162 36.1659C38.1182 36.2536 38.162 36.3413 38.2058 36.3851C38.2497 36.4289 38.3373 36.4289 38.3812 36.3851C40.6169 34.5001 42.1074 31.826 42.5896 28.9327C41.9759 28.319 41.4936 27.5738 41.2306 26.7408C37.2852 28.9327 32.2439 27.5299 30.0082 23.5407C27.9917 19.946 28.9123 15.3869 32.2001 12.8882C32.3754 12.7128 32.6823 12.7567 32.8576 12.932C33.033 13.1074 32.9892 13.4142 32.8138 13.5896C31.8932 14.3787 31.0165 15.2554 30.5781 16.3513C28.3862 21.6557 32.2878 26.7847 37.3291 26.7847C38.6442 26.7847 39.9155 26.434 41.0114 25.7764H41.0553C41.0114 25.4696 40.9676 25.1189 40.9676 24.7682C40.9676 24.2421 40.5292 23.8037 40.0032 23.8037C39.7401 23.8037 39.5648 23.5845 39.5648 23.3654C39.5648 23.1023 39.784 22.927 40.0032 22.927C41.0553 22.927 41.8882 23.7599 41.8882 24.812C41.8882 27.5299 44.0801 29.7218 46.7542 29.7218C47.6747 29.678 48.6392 29.4149 49.4282 28.8889ZM41.9759 21.0858C41.3621 21.0858 40.8799 20.6036 40.8799 20.0337C40.8799 19.4638 41.3621 18.9378 41.932 18.9378C42.5457 18.9378 43.028 19.42 43.028 19.9899C43.0718 20.6036 42.5896 21.0858 41.9759 21.0858Z" fill="var(--icon-color)"/>
<path d="M42.6772 32.0891C42.0196 33.6672 41.0552 35.1139 39.8277 36.2975C39.7839 36.3413 39.8277 36.3852 39.8716 36.3852C42.5457 35.2016 44.7375 33.1412 46.1403 30.5548C45.1759 30.4671 44.2115 30.1164 43.4224 29.5465C43.2471 30.4233 42.984 31.2562 42.6772 32.0891Z" fill="var(--icon-color)"/>
<path d="M10.1498 6.83876H1.25075C0.81237 6.83876 0.46167 6.48806 0.46167 6.04968V5.87433C0.46167 2.84954 2.87274 0.438477 5.89753 0.438477H26.1943C26.808 0.438477 27.2903 0.92069 27.2903 1.53442V5.78666C27.2903 6.40038 26.808 6.8826 26.1943 6.8826H17.5583C17.2953 6.8826 17.1199 7.05795 17.1199 7.32097V35.2893C17.1199 35.9031 16.6377 36.3853 16.0678 36.3853H11.6841C11.0704 36.3853 10.5881 35.9031 10.5881 35.2893V7.27714C10.5881 7.05795 10.4128 6.8826 10.1498 6.83876Z" fill="var(--icon-color)"/>
<path d="M48.9022 10.7839H53.9873C54.4257 10.7839 54.8203 11.047 54.9956 11.4853L61.1329 27.2669C61.1767 27.3984 61.3082 27.4422 61.3959 27.4422C61.5274 27.4422 61.6151 27.3545 61.6589 27.2669L66.7441 14.3786C67.577 12.2306 69.6812 10.8278 71.9608 10.8278H73.8896C74.5033 10.8278 74.9855 11.31 74.9855 11.9237C74.9855 12.0552 74.9417 12.2306 74.8979 12.3621L64.9029 35.7275C64.7276 36.122 64.333 36.3851 63.8946 36.3851H58.8095C58.3711 36.3851 57.9766 36.122 57.8012 35.7275L47.8939 12.3182C47.6747 11.7484 47.9378 11.1346 48.4638 10.9154C48.6392 10.8278 48.7707 10.7839 48.9022 10.7839Z" fill="var(--icon-color)"/>
<path d="M125.136 6.40028C124.434 5.69888 123.996 4.73446 124.04 3.72619C124.04 2.71793 124.434 1.79734 125.136 1.09594C125.837 0.394538 126.801 0 127.81 0C128.818 0 129.739 0.394538 130.44 1.09594C131.141 1.79734 131.536 2.71793 131.536 3.72619C131.536 4.73446 131.141 5.69888 130.44 6.40028C129.739 7.10168 128.818 7.54006 127.81 7.49622C126.801 7.54006 125.837 7.14552 125.136 6.40028Z" fill="var(--icon-color)"/>
<path d="M125.574 10.7839H129.958C130.571 10.7839 131.054 11.2661 131.054 11.8799V35.2891C131.054 35.9029 130.571 36.3851 129.958 36.3851H125.574C124.96 36.3851 124.478 35.9029 124.478 35.2891V11.8799C124.478 11.31 124.96 10.7839 125.574 10.7839Z" fill="var(--icon-color)"/>
<path d="M116.85 30.248C115.755 30.248 114.922 29.9849 114.483 29.4589C113.913 28.889 113.65 27.9684 113.65 26.6533V16.6145C113.65 16.5268 113.738 16.4391 113.826 16.4391H115.053C117.727 16.4391 119.919 14.2473 119.919 11.5732C119.919 11.1786 119.568 10.8279 119.174 10.8279H113.65V9.20594C113.65 6.09347 111.152 3.59473 108.039 3.59473C107.513 3.59473 107.075 4.0331 107.075 4.55915V27.8807C107.075 30.6425 107.864 32.7905 109.442 34.281C110.187 34.9824 111.064 35.5523 112.028 35.8592C113.168 36.2537 114.352 36.4291 115.535 36.4291H118.999C119.612 36.4291 120.094 35.9469 120.094 35.3331V31.3439C120.094 30.7302 119.612 30.248 118.999 30.248H116.85Z" fill="var(--icon-color)"/>
<path d="M89.8904 36.8234C83.4462 36.6481 78.3611 31.1684 78.3611 24.6804V11.836C78.3611 11.2661 78.7995 10.8278 79.3693 10.8278H83.9285C84.4545 10.8278 84.8929 11.2661 84.8929 11.7922V24.812C84.849 27.6176 86.9532 29.9848 89.715 30.2917C92.6521 30.5547 95.2824 28.4066 95.5454 25.4695C95.5454 25.2942 95.5892 25.1188 95.5892 24.9435V16.3513C95.5892 13.2827 98.088 10.7839 101.157 10.7839C101.683 10.7839 102.121 11.2223 102.121 11.7484V24.9435C102.121 31.5191 96.7729 36.8234 90.2411 36.8234C90.1095 36.8234 90.0219 36.8234 89.8904 36.8234Z" fill="var(--icon-color)"/>
</svg>
